3 ANOVA | Corpus Annotation and Data Analysis Equinox School: Introduction to Statistics
…
The (unfortunately very ugly) Likert-type scale from 1 (unacceptable) to 5 (acceptable)

We will only work with a smaller set of data here. As you can see in the code below, I am excluding the children, and one level of the trigger type independent variable (namely non-restrictive relative clauses). And there is some other stuff in the columns that I am dropping here, but this level of complexity should be enough for now.

d_psp <- read_csv(here("assets", "data", "psp-data.csv")) %>%
  filter(trigger_cat != "appo", stage != "Children") %>%
  select(id, itemid, trigger_cat, issue, judgment)
d_psp

## # A tibble: 657 × 5
##    id                         itemid     trigger_cat issue        judgment
##    <chr>                      <chr>      <chr>       <chr>           <dbl>
##  1 auncqkpvl6b3rp0d3g833vmuh6 gewinnen2  soft        at-issue            5
##  2 auncqkpvl6b3rp0d3g833vmuh6 schaffen1  soft        at-issue            1
##  3 auncqkpvl6b3rp0d3g833vmuh6 auch3      hard        at-issue            1
##  4 auncqkpvl6b3rp0d3g833vmuh6 entdecken1 soft        at-issue            5
##  5 auncqkpvl6b3rp0d3g833vmuh6 schaffen3  soft        at-issue            1
##  6 auncqkpvl6b3rp0d3g833vmuh6 cleft3     hard        non-at-issue        5
##  7 auncqkpvl6b3rp0d3g833vmuh6 wieder1    hard        non-at-issue        5
##  8 auncqkpvl6b3rp0d3g833vmuh6 auch2      hard        non-at-issue        5
##  9 auncqkpvl6b3rp0d3g833vmuh6 auch1      hard        at-issue            1
## 10 auncqkpvl6b3rp0d3g833vmuh6 entdecken2 soft        non-at-issue        5
## # … with 647 more rows
…
In fact, the same computation we already did for the \(t\)-test will show up again with the ANOVA, only the names for the parts will be different.

Importantly, the ANOVA, but not the \(t\)-test, handles more complex analytical situations as well, namely ones where we want to include several independent variables. And of course, in these situations the equivalence breaks down.

What about the lm()? LM is short for linear model, i.e., a type of analysis that works by fitting a line by minimizing the distance of the actual observations to the line. Again, this line fitting procedure is equivalent to the ANOVA and the \(t\)-test in this case.

set.seed(1234)
sim <- tibble(
  a = rnorm(n = 15, mean = 2),
  b = rnorm(n = 15, mean = 3),
) %>%
  pivot_longer(cols = c(a, b), names_to = "cond")
sim

## # A tibble: 30 × 2
##    cond   value
##    <chr>  <dbl>
##  1 a      0.793
##  2 b      2.89 
##  3 a      2.28 
##  4 b      2.49 
##  5 a      3.08 
##  6 b      2.09 
##  7 a     -0.346
##  8 b      2.16 
##  9 a      2.43 
## 10 b      5.42 
## # … with 20 more rows
…
Figure 3.1: Interactions

3.5 More repeated measures

Question: Is there another repeated measures source in our data? Have a look again and see if you can spot one.

## # A tibble: 657 × 5
##    id                         itemid     trigger_cat issue        judgment
##    <chr>                      <chr>      <chr>       <chr>           <dbl>
##  1 auncqkpvl6b3rp0d3g833vmuh6 gewinnen2  soft        at-issue            5
##  2 auncqkpvl6b3rp0d3g833vmuh6 schaffen1  soft        at-issue            1
##  3 auncqkpvl6b3rp0d3g833vmuh6 auch3      hard        at-issue            1
##  4 auncqkpvl6b3rp0d3g833vmuh6 entdecken1 soft        at-issue            5
##  5 auncqkpvl6b3rp0d3g833vmuh6 schaffen3  soft        at-issue            1
##  6 auncqkpvl6b3rp0d3g833vmuh6 cleft3     hard        non-at-issue        5
##  7 auncqkpvl6b3rp0d3g833vmuh6 wieder1    hard        non-at-issue        5
##  8 auncqkpvl6b3rp0d3g833vmuh6 auch2      hard        non-at-issue        5
##  9 auncqkpvl6b3rp0d3g833vmuh6 auch1      hard        at-issue            1
## 10 auncqkpvl6b3rp0d3g833vmuh6 entdecken2 soft        non-at-issue        5
## # … with 647 more rows
…
