5 Linear Mixed Models | Corpus Annotation and Data Analysis Equinox School: Introduction to Statistics
…
## # A tibble: 1 × 5
##   term        estimate std.error statistic   p.value
##   <chr>          <dbl>     <dbl>     <dbl>     <dbl>
## 1 (Intercept)     3.65    0.0563      64.8 2.02e-287

# no pooling
d_psp %>%
  mutate(id = factor(as.numeric(factor(id)))) %>%
  lm(judgment ~ id - 1, data = .) %>%
  tidy() %>%
  mutate(p.value = scales::pvalue(p.value))

## # A tibble: 33 × 5
##    term  estimate std.error statistic p.value
##    <chr>    <dbl>     <dbl>     <dbl> <chr>  
##  1 id1       3.9      0.314      12.4 <0.001 
##  2 id2       3.55     0.314      11.3 <0.001 
##  3 id3       3.75     0.314      11.9 <0.001 
##  4 id4       3.4      0.314      10.8 <0.001 
##  5 id5       3.45     0.314      11.0 <0.001 
##  6 id6       3.65     0.314      11.6 <0.001 
##  7 id7       3.35     0.314      10.7 <0.001 
##  8 id8       3.95     0.314      12.6 <0.001 
##  9 id9       3.68     0.323      11.4 <0.001 
## 10 id10      3.9      0.314      12.4 <0.001 
## # … with 23 more rows
…
