Corpus Annotation and Data Analysis Equinox School: Introduction to Statistics
…
In which scenarios is the \(t\)-test applicable and when is it not (scale levels, assumptions of the \(t\)-test, etc.)? What is the effect of setting the paired argument in the R command of t.test to TRUE?

What is the \(\chi^2\) test? Why does it find so much use in corpus linguistics compared to the \(t\)-test? What does the output below mean?

# get the frequencies for both diamond colors in the data set
(color_frequencies <- diamond_sub %>%
  group_by(color) %>%
  summarise(frequency = n())
)

## # A tibble: 2 × 2
##   color frequency
##   <ord>     <int>
## 1 E          9797
## 2 J          2808

# perform the chi^2 test
color_frequencies %>%
  select(frequency) %>%
  chisq.test()

## 
##  Chi-squared test for given probabilities
## 
## data:  .
## X-squared = 3875.14, df = 1, p-value < 0.000000000000000222

What are proper and improper interpretations of a \(p\)-value? What is statistical significance?

To brush up on statistics, you can also read (the relevant chapters in) Gries (2013) Alternatively, I recommend Vasishth and Broe (2010) up to (and including) chapter 3 and Field et al. (2012) (chapters 1 through 3 as well). As a last recommendation, you can also have a look at Winter (2020).

1.2 Get in touch

If you have any questions about the information presented here or any other matters related to the class, please do not hesitate to drop me a line via email.

Session Info

## R version 4.2.1 (2022-06-23)
## Platform: x86_64-apple-darwin17.0 (64-bit)
## Running under: macOS Big Sur ... 10.16
## 
## Locale: en_US.UTF-8 / en_US.UTF-8 / en_US.UTF-8 / C / en_US.UTF-8 / en_US.UTF-8
## 
## Package version:
##   ggtext_0.1.1        forcats_0.5.2       stringr_1.4.1       dplyr_1.0.10        purrr_0.3.4        
##   readr_2.1.2         tidyr_1.2.0         tibble_3.1.8        ggplot2_3.3.6       tidyverse_1.3.2    
##   broom_1.0.1         patchwork_1.1.2     emmeans_1.8.0       afex_1.1-1          lme4_1.1-30        
##   Matrix_1.4-1        here_1.0.1          nlme_3.1-159        fs_1.5.2            lubridate_1.8.0    
##   httr_1.4.4          rprojroot_2.0.3     R.cache_0.16.0      numDeriv_2016.8-1.1 tools_4.2.1        
##   backports_1.4.1     bslib_0.4.0         utf8_1.2.2          R6_2.5.1            DBI_1.1.3          
##   colorspace_2.0-3    withr_2.5.0         tidyselect_1.1.2    compiler_4.2.1      cli_3.3.0          
##   rvest_1.0.3         xml2_1.3.3          bookdown_0.28       sass_0.4.2          scales_1.2.1       
##   mvtnorm_1.1-3       digest_0.6.29       minqa_1.2.4         R.utils_2.12.0      rmarkdown_2.16     
##   pkgconfig_2.0.3     htmltools_0.5.3     styler_1.7.0        dbplyr_2.2.1        fastmap_1.1.0      
##   rlang_1.0.5         readxl_1.4.1        rstudioapi_0.14     jquerylib_0.1.4     generics_0.1.3     
##   jsonlite_1.8.0      R.oo_1.25.0         car_3.1-0           googlesheets4_1.0.1 magrittr_2.0.3     
##   Rcpp_1.0.9          munsell_0.5.0       fansi_1.0.3         abind_1.4-5         R.methodsS3_1.8.2  
##   lifecycle_1.0.1     stringi_1.7.8       yaml_2.3.5          carData_3.0-5       MASS_7.3-58.1      
##   plyr_1.8.7          grid_4.2.1          crayon_1.5.1        lattice_0.20-45     haven_2.5.1        
##   splines_4.2.1       gridtext_0.1.4      hms_1.1.2           knitr_1.40          pillar_1.8.1       
##  [ reached getOption("max.print") -- omitted 23 entries ]
…
